Wprowadzenie do R
…
head(gosp_xlsx, n=2)

# A tibble: 2 × 16
    klm woj     trb   zut   d21   d32  d345  d347  d348   d36   d38   d61   d63
  <dbl> <chr> <dbl> <dbl> <dbl> <dbl> <dbl> <dbl> <dbl> <dbl> <dbl> <dbl> <dbl>
1     1 02       11     5     2     1     1     2     1    69     2     3     3
2     1 02        6     1     2     1     2     2     1    74     3     4     2
# … with 3 more variables: los <dbl>, dochg <dbl>, wydg <dbl>

Jeżeli zbiór nie jest zbyt duży możemy bezpośrednio wywołać ten obiekt.

gosp_xlsx

# A tibble: 32,487 × 16
     klm woj     trb   zut   d21   d32  d345  d347  d348   d36   d38   d61   d63
   <dbl> <chr> <dbl> <dbl> <dbl> <dbl> <dbl> <dbl> <dbl> <dbl> <dbl> <dbl> <dbl>
 1     1 02       11     5     2     1     1     2     1    69     2     3     3
 2     1 02        6     1     2     1     2     2     1    74     3     4     2
 3     1 02        3     1     1     3     1     2     1    83     3     4     1
 4     1 02       12     5     2     1     3     3     2    44     2     4     1
 5     1 02        1     5     1     3     1     2     1   110     5     4     2
 6     1 02       12     1     1     1     2     3     1    36     1     3     3
 7     1 02       12     1     1     1     1     1     1    59     2     3     3
 8     1 02       12     5     1     1     2     2     1    32     2     3     3
 9     1 02       12     5     1     1     1     2     1    63     3     3     2
10     1 02        8     1     2     1     2     3     1    46     2     4     2
# … with 32,477 more rows, and 3 more variables: los <dbl>, dochg <dbl>,
#   wydg <dbl>
…
